[
  {
    "id": "a165d3ee-97b5-44d7-ad1c-99904747d68a",
    "data": [
      {
        "text": "Cuánto tarda?",
        "userDefined": false
      }
    ],
    "isTemplate": false,
    "count": 0,
    "updated": 0
  },
  {
    "id": "427db72a-b7e1-4a32-b70c-c00089c8486b",
    "data": [
      {
        "text": "Y me lo ",
        "userDefined": false
      },
      {
        "text": "dan",
        "meta": "@sys.ignore",
        "userDefined": false
      },
      {
        "text": " ese mismo día?",
        "userDefined": false
      }
    ],
    "isTemplate": false,
    "count": 0,
    "updated": 0
  },
  {
    "id": "cb147194-0fd5-41ae-a997-10555b15e858",
    "data": [
      {
        "text": "Pero tengo que ir a una oficina o lo puedo hacer online?",
        "userDefined": false
      }
    ],
    "isTemplate": false,
    "count": 0,
    "updated": 0
  },
  {
    "id": "c568051a-6782-4541-b0de-64bdf4c4752b",
    "data": [
      {
        "text": "Pero tengo que ir a ",
        "userDefined": false
      },
      {
        "text": "una oficina",
        "meta": "@sys.ignore",
        "userDefined": false
      },
      {
        "text": "?",
        "userDefined": false
      }
    ],
    "isTemplate": false,
    "count": 0,
    "updated": 0
  }
]