{
  "id": "a7d07682-4bc0-46ec-adac-54a55c544791",
  "name": "clave_oficinas_registro_res",
  "auto": true,
  "contexts": [
    "clave"
  ],
  "responses": [
    {
      "resetContexts": false,
      "affectedContexts": [
        {
          "name": "clave",
          "parameters": {},
          "lifespan": 5
        }
      ],
      "parameters": [],
      "messages": [
        {
          "type": 0,
          "lang": "es",
          "condition": "",
          "speech": "Te facilito los enlaces con los directorios de oficinas, tanto de la Agencia Tributaria  como de la Seguridad Social, donde podrá registrarse en el Sistema Cl@ve, modificar sus datos o aumentar el nivel de seguridad. Ten en cuenta que en la Agencia Tributaria y en el Instituto Nacional de la Seguridad Social es necesario solicitar cita previa. En las oficinas de la Tesorería General de la Seguridad Social no hace falta pedir cita. Puedes ir a cualquier oficina, no es necesario que sea la más cercana al domicilio que consta en tu DNI. \nhttps://www.agenciatributaria.gob.es/AEAT.sede/Inicio/_otros_/_Direcciones_y_telefonos_/_Buscador_de_oficinas_/_Buscador_de_oficinas_.shtml\nhttp://www.seg-social.es/wps/portal/wss/internet/OficinaSeguridadSocial/!ut/p/z1/04_Sj9CPykssy0xPLMnMz0vMAfIjo8zijQw9TTxMDAx9_d0NzQwcgwLM3YyMTQwMDAz1w1EVGBg4mwIVWLr7BIcFGxpYGOtHEaPfAAdwNCCsPwpVCRYXgBXgsSI4tVi_IDc0wiDLRBEA0V17og!!/p0/IZ7_598I0802NGUE30AVEKRBDA2000\u003dCZ6_21I4H401MOG160ARP7F2340001\u003dLA0\u003d/#Z7_598I0802NGUE30AVEKRBDA2000\nhttps://administracion.gob.es/pag_Home/atencionCiudadana/encuentraTuOficina/OficinasRegistro_CLAVE.html#.XiL5X4lKjct\nRecuerda que en el actual estado de alarma no se puede realizar el registro presencial. Si dispones de certificado digital o DNI electrónico puedes hacerlo de manera online. En www.clave.gob.es encontrarás toda la información sobre lo que tienes que hacer."
        }
      ],
      "defaultResponsePlatforms": {},
      "speech": []
    }
  ],
  "priority": 750000,
  "webhookUsed": false,
  "webhookForSlotFilling": false,
  "fallbackIntent": false,
  "events": [],
  "conditionalResponses": [],
  "condition": "",
  "conditionalFollowupEvents": []
}