{
  "id": "82fcdb07-a9e0-4c7f-b276-dd56f53b4afe",
  "name": "clave_registro",
  "auto": true,
  "contexts": [],
  "responses": [
    {
      "resetContexts": false,
      "affectedContexts": [
        {
          "name": "clave",
          "parameters": {},
          "lifespan": 5
        }
      ],
      "parameters": [],
      "messages": [
        {
          "type": 0,
          "lang": "es",
          "condition": "",
          "speech": "El registro en Cl@ve puede hacerse a través de alguna de las siguientes tres vías: \n\n1- Solicitando la carta de invitación, para recibirla por correo en tu domicilio fiscal. Puedes solicitarla aquí:  https://www.agenciatributaria.gob.es/AEAT.sede/procedimientoini/GC27.shtml\n2- Presencialmente en una oficina de Registro Cl@ve: \nhttps://administracion.gob.es/pagFront/atencionCiudadana/oficinas/encuentraOficina.htm#.Wt79hJKLSM8\n3- Telemáticamente, si dispones de certificado de firma electrónica, a través del siguiente enlace: \nhttps://www.agenciatributaria.gob.es/AEAT.sede/Inicio/Procedimientos_y_Servicios/Otros_servicios/Registro_y_obtencion_de_Cl_ve_PIN/Registro_y_obtencion_de_Cl_ve_PIN/tramites/Si_quiere_registrarse_con_certificado_o_DNI_electronico/Si_quiere_registrarse_con_certificado_o_DNI_electronico.shtml\nEs importante que sepas que si no acude a una oficina para verificar tu identidad, la clave que obtengas tendrá un nivel de seguridad bajo, lo que supondrá que no podrás realizar algunos trámites en diferentes administraciones."
        }
      ],
      "defaultResponsePlatforms": {},
      "speech": []
    }
  ],
  "priority": 500000,
  "webhookUsed": false,
  "webhookForSlotFilling": false,
  "fallbackIntent": false,
  "events": [],
  "conditionalResponses": [],
  "condition": "",
  "conditionalFollowupEvents": []
}