[
  {
    "id": "6a8f92a9-5c49-431d-b033-c524a4c8fceb",
    "data": [
      {
        "text": "¿Y dónde me mandan la carta?",
        "userDefined": false
      }
    ],
    "isTemplate": false,
    "count": 0,
    "updated": 0
  },
  {
    "id": "86e041ee-14e0-4812-b60a-36254dac6eea",
    "data": [
      {
        "text": "Tardan mucho en enviar la carta porque necesito la clave cuanto antes",
        "userDefined": false
      }
    ],
    "isTemplate": false,
    "count": 0,
    "updated": 0
  },
  {
    "id": "747e62ef-ae80-4afb-acf7-748a670a5354",
    "data": [
      {
        "text": "Cuándo me llega la carta?",
        "userDefined": false
      }
    ],
    "isTemplate": false,
    "count": 0,
    "updated": 0
  },
  {
    "id": "67f20302-6fa7-4533-9452-6188c3cf0d24",
    "data": [
      {
        "text": "Y si pido la carta cuánto tarda en llegar?",
        "userDefined": false
      }
    ],
    "isTemplate": false,
    "count": 0,
    "updated": 0
  },
  {
    "id": "623756ff-3529-400b-be7f-9811594a1599",
    "data": [
      {
        "text": "Y la carta cuánto tarda?",
        "userDefined": false
      }
    ],
    "isTemplate": false,
    "count": 0,
    "updated": 0
  },
  {
    "id": "f4b48f29-a26d-4ad8-8c25-ea352c3b7d98",
    "data": [
      {
        "text": "Cuánto tarda la carta?",
        "userDefined": false
      }
    ],
    "isTemplate": false,
    "count": 0,
    "updated": 0
  }
]