[
  {
    "id": "4ecfd9c8-739c-48d6-abae-5739bb197c40",
    "data": [
      {
        "text": "Buenos días. Estoy dada de alta en clave pin permanente, no recuerdo la clave. En la seguridad social modifiqué el telefono pero cuando intento recuperarla me mandan el sms al antiguo",
        "userDefined": false
      }
    ],
    "isTemplate": false,
    "count": 0,
    "updated": 0
  },
  {
    "id": "afeb0930-6e4c-4742-bf71-f9e3b3704d1a",
    "data": [
      {
        "text": "Hola, Buenos días para solicitar el cambio de teléfono de mi clave pin? Podría ayudarme gracias",
        "userDefined": false
      }
    ],
    "isTemplate": false,
    "count": 0,
    "updated": 0
  },
  {
    "id": "63887667-56bb-498f-99fa-f5c1e89af6b3",
    "data": [
      {
        "text": "Cambiar el número de teléfono para poder acceder a la Cl@ve",
        "userDefined": false
      }
    ],
    "isTemplate": false,
    "count": 1,
    "updated": 0
  },
  {
    "id": "40c88325-7237-4ce5-bb64-ece60e60a67e",
    "data": [
      {
        "text": "He cambiado el número de teléfono de clave permanente y ",
        "userDefined": false
      },
      {
        "text": "ahora",
        "meta": "@sys.ignore",
        "userDefined": false
      },
      {
        "text": " no me deja entrar",
        "userDefined": false
      }
    ],
    "isTemplate": false,
    "count": 0,
    "updated": 0
  },
  {
    "id": "11b5fef3-4f70-4d91-ad06-fcccc8498d75",
    "data": [
      {
        "text": "Buenos días, Como cambiar el número de teléfono para obtener referencia en clave pin ya que me sale asignado a otro usuario. Gracias",
        "userDefined": false
      }
    ],
    "isTemplate": false,
    "count": 0,
    "updated": 0
  },
  {
    "id": "46fe7b9f-dc4b-47ef-8ab6-926a2cddea61",
    "data": [
      {
        "text": "Necesito cambiar el número de teléfono de la clave PIN",
        "userDefined": false
      }
    ],
    "isTemplate": false,
    "count": 0,
    "updated": 0
  },
  {
    "id": "81709816-de8e-4e2c-a0ec-89713b3f9f5c",
    "data": [
      {
        "text": "Tengo que cambiar el número de teléfono para poder recibir el PIN de Cl@ve",
        "userDefined": false
      }
    ],
    "isTemplate": false,
    "count": 0,
    "updated": 0
  },
  {
    "id": "7f49f1a6-038b-426d-8b69-7268546f1a93",
    "data": [
      {
        "text": "Como cambio el número de teléfono de la clave permanente?",
        "userDefined": false
      }
    ],
    "isTemplate": false,
    "count": 0,
    "updated": 0
  },
  {
    "id": "55c60395-1cf5-4e7f-8e97-f24e21f0ca6c",
    "data": [
      {
        "text": "Cómo puedo cambiar el número de teléfono de la clave pin",
        "userDefined": false
      }
    ],
    "isTemplate": false,
    "count": 0,
    "updated": 0
  },
  {
    "id": "51712c31-3454-499a-b827-da99b43c21f0",
    "data": [
      {
        "text": "Tengo que cambiar el número de teléfono de la clave PIN. ¿Qué tengo que hacer?",
        "userDefined": false
      }
    ],
    "isTemplate": false,
    "count": 0,
    "updated": 0
  },
  {
    "id": "134d87f4-149d-4dee-9ffe-28fadef5bf64",
    "data": [
      {
        "text": "Hola, necesito cambiar el número de teléfono para poder recibir PIN de Clave. A que oficina tengo que ir para cambiarlo",
        "userDefined": false
      }
    ],
    "isTemplate": false,
    "count": 0,
    "updated": 0
  },
  {
    "id": "ee40c5c2-80d7-420a-8fcd-b970eace4949",
    "data": [
      {
        "text": "Buenas tardes, necesito cambiar el número de teléfono vinculado a mí clave pin, porque he cambiado de número de móvil",
        "userDefined": false
      }
    ],
    "isTemplate": false,
    "count": 0,
    "updated": 0
  },
  {
    "id": "263b8446-3071-41c1-b19d-bd268c716a19",
    "data": [
      {
        "text": "Como cambiar número de teléfono vinculado con ",
        "userDefined": false
      },
      {
        "text": "mi",
        "meta": "@sys.ignore",
        "userDefined": false
      },
      {
        "text": " clave pin",
        "userDefined": false
      }
    ],
    "isTemplate": false,
    "count": 0,
    "updated": 0
  },
  {
    "id": "6e557078-3380-4e6e-8c4d-2dc9d947e5c7",
    "data": [
      {
        "text": "Para cambiar el número de teléfono de la clave pin sin tener ",
        "userDefined": false
      },
      {
        "text": "dni",
        "meta": "@sys.ignore",
        "userDefined": false
      },
      {
        "text": " electrónico?",
        "userDefined": false
      }
    ],
    "isTemplate": false,
    "count": 0,
    "updated": 0
  },
  {
    "id": "4b2ee584-5c13-4a06-8f44-4a04221525d0",
    "data": [
      {
        "text": "Necesito cambiar ",
        "userDefined": false
      },
      {
        "text": "mi",
        "meta": "@sys.ignore",
        "userDefined": false
      },
      {
        "text": " número de teléfono porque me llega el pin al número viejo",
        "userDefined": false
      }
    ],
    "isTemplate": false,
    "count": 0,
    "updated": 0
  },
  {
    "id": "6951915c-6bb4-4397-9489-17d7146cddfc",
    "data": [
      {
        "text": "Forma más rápida de cambiar el número de teléfono vinculado a la CL@VE",
        "userDefined": false
      }
    ],
    "isTemplate": false,
    "count": 0,
    "updated": 0
  },
  {
    "id": "7722e634-c382-41ea-b259-a8b9627dbbeb",
    "data": [
      {
        "text": "Hola. Me gustaría cambiar mi número de teléfono en Cl@ve. ¿me puede decir como hacerlo?",
        "userDefined": false
      }
    ],
    "isTemplate": false,
    "count": 0,
    "updated": 0
  },
  {
    "id": "02d4fef3-63ed-4a87-be17-0fd16a822835",
    "data": [
      {
        "text": "Cómo puedo cambiar el teléfono de contacto de Clave?",
        "userDefined": false
      }
    ],
    "isTemplate": false,
    "count": 0,
    "updated": 0
  },
  {
    "id": "db7cfcd9-67d9-4a9a-a03c-06d66a87d10a",
    "data": [
      {
        "text": "Buenas. Mi duda es sobre la Cl@ve. Tengo código de activación pero me olvidé el PIN. El problema es que cambié de número de teléfono y no puedo modificar ese dato porque me pide el pin o certificado electrónico, que tampoco tengo. Cómo puedo solucionar este problema?",
        "userDefined": false
      }
    ],
    "isTemplate": false,
    "count": 0,
    "updated": 0
  }
]