{
  "id": "9e086263-c123-47fe-bdb7-1dda52dc99c3",
  "name": "Default Fallback Intent",
  "auto": true,
  "contexts": [],
  "responses": [
    {
      "resetContexts": false,
      "action": "input.unknown",
      "affectedContexts": [
        {
          "name": "DefaultFallbackIntent-followup",
          "parameters": {},
          "lifespan": 2
        }
      ],
      "parameters": [],
      "messages": [
        {
          "type": 0,
          "lang": "es",
          "condition": "",
          "speech": [
            "Disculpa, no te he entendido. Quizás no esté suficientemente entrenado para ayudarte pero ¿puedes explicarme de otra manera qué necesitas?",
            "Lo siento, no te he entendido. Quizás no esté lo suficientemente entrenado para responder a tu pregunta pero si me explicas lo que necesitas de otra manera a lo mejor puedo ayudarte."
          ]
        }
      ],
      "defaultResponsePlatforms": {},
      "speech": []
    }
  ],
  "priority": 500000,
  "webhookUsed": false,
  "webhookForSlotFilling": false,
  "fallbackIntent": true,
  "events": [],
  "conditionalResponses": [],
  "condition": "",
  "conditionalFollowupEvents": []
}