{
  "id": "f3f54d56-35b6-47ba-bc5f-7868a3edefcc",
  "name": "dnielectronico_problema_version",
  "auto": true,
  "contexts": [],
  "responses": [
    {
      "resetContexts": false,
      "affectedContexts": [
        {
          "name": "dnielectronico",
          "parameters": {},
          "lifespan": 5
        }
      ],
      "parameters": [],
      "messages": [
        {
          "type": 0,
          "lang": "es",
          "condition": "",
          "speech": "En este caso debes contactar con soporte técnico del DNIe. Te facilito un enlace donde encontrarás diferentes formas de contacto:  https://www.dnielectronico.es/PortalDNIe/PRF1_Cons02.action?pag\u003dREF_2110\u0026id_menu\u003d41"
        }
      ],
      "defaultResponsePlatforms": {},
      "speech": []
    }
  ],
  "priority": 500000,
  "webhookUsed": false,
  "webhookForSlotFilling": false,
  "fallbackIntent": false,
  "events": [],
  "conditionalResponses": [],
  "condition": "",
  "conditionalFollowupEvents": []
}