[
  {
    "id": "ac734216-80b0-4f2a-bc61-4fd3e2919773",
    "data": [
      {
        "text": "estoy usando mi dni electrónico pero me dice que está revocado",
        "userDefined": false
      }
    ],
    "isTemplate": false,
    "count": 0,
    "updated": 0
  },
  {
    "id": "110bd49c-9546-4f05-a7db-291671150a9e",
    "data": [
      {
        "text": "Quiero saber cómo renovar el chip del DNI",
        "userDefined": false
      }
    ],
    "isTemplate": false,
    "count": 0,
    "updated": 0
  },
  {
    "id": "8e760df9-15dc-4f36-b1fc-efdd9aa64f28",
    "data": [
      {
        "text": "necesito renovar el pin del DNI",
        "userDefined": false
      }
    ],
    "isTemplate": false,
    "count": 0,
    "updated": 0
  },
  {
    "id": "3b84167e-36d7-452b-bd58-c96f3451fcbd",
    "data": [
      {
        "text": "Cuando meto el DNI me da error, certificado revocado. ¿Qué debo hacer?La contraseña/pin electrónico del DNI, tiene fecha de caducidad? Que está compuesto por 8 di",
        "userDefined": false
      }
    ],
    "isTemplate": false,
    "count": 0,
    "updated": 0
  },
  {
    "id": "2ad57323-20ce-4d5f-b7e4-7b439d3dde51",
    "data": [
      {
        "text": "Buenos días, a la hora de realizar la inscripción online de las oposiciones me dice que el certificado del DNI electrónico ha sido revocado",
        "userDefined": false
      }
    ],
    "isTemplate": false,
    "count": 0,
    "updated": 0
  }
]