{
  "id": "aa1eda2f-f878-4231-b30c-b7f6d56d087b",
  "name": "dnielectronico_revocado",
  "auto": true,
  "contexts": [],
  "responses": [
    {
      "resetContexts": false,
      "affectedContexts": [
        {
          "name": "dnielectronico",
          "parameters": {},
          "lifespan": 5
        }
      ],
      "parameters": [],
      "messages": [
        {
          "type": 0,
          "lang": "es",
          "condition": "",
          "speech": "Si te aparece el error \"certificado revocado\" debes acudir a una oficina de expedición de DNI y pasaporte. No es necesario solicitar cita previa. Puedes consultar el listado y los horarios en el siguiente enlace: https://www.dnielectronico.es/PortalDNIe/PRF1_Cons02.action?pag\u003dREF_9030"
        }
      ],
      "defaultResponsePlatforms": {},
      "speech": []
    }
  ],
  "priority": 500000,
  "webhookUsed": false,
  "webhookForSlotFilling": false,
  "fallbackIntent": false,
  "events": [],
  "conditionalResponses": [],
  "condition": "",
  "conditionalFollowupEvents": []
}