[
  {
    "id": "7ed195c0-315b-4ee6-ab5b-3731a43cceeb",
    "data": [
      {
        "text": "Buenos días. Me pongo en contacto con ustedes porque hace semanas que intento aceptar dos apoderamientos que me han hecho unos clientes desde el Fogasa y la plataforma no funciona. Intento acceder con mi tarjeta de colegiada del colegio de abogados de Girona, como ya he hecho en otras ocasiones.",
        "userDefined": false
      }
    ],
    "isTemplate": false,
    "count": 0,
    "updated": 0
  },
  {
    "id": "f62054e9-ca1d-42ec-8154-f75b425785dd",
    "data": [
      {
        "text": "Buenas ",
        "userDefined": false
      },
      {
        "text": "tardes",
        "meta": "@sys.ignore",
        "userDefined": false
      },
      {
        "text": ". Llevo intentando ",
        "userDefined": false
      },
      {
        "text": "desde ayer",
        "meta": "@sys.ignore",
        "userDefined": false
      },
      {
        "text": " hacer ",
        "userDefined": false
      },
      {
        "text": "un",
        "meta": "@sys.ignore",
        "userDefined": false
      },
      {
        "text": " apoderamiento para ",
        "userDefined": false
      },
      {
        "text": "un",
        "meta": "@sys.ignore",
        "userDefined": false
      },
      {
        "text": " trámite ante FOGASA y después de introducir todos los datos y proceder a la firma, se queda la pantalla en estado.....procesando y no llega a formalizarse el apoderamiento. Lo he intentando desde varios navegadores diferentes. Desconozco si ",
        "userDefined": false
      },
      {
        "text": "es",
        "meta": "@sys.ignore",
        "userDefined": false
      },
      {
        "text": " ",
        "userDefined": false
      },
      {
        "text": "un",
        "meta": "@sys.ignore",
        "userDefined": false
      },
      {
        "text": " problema puntual o es que aún no está habilitada esta opción. Gracias.",
        "userDefined": false
      }
    ],
    "isTemplate": false,
    "count": 0,
    "updated": 0
  }
]