{
  "id": "95bc27b1-9bba-4db3-916b-cceb9ac2570d",
  "name": "registro_presentar_doc",
  "auto": true,
  "contexts": [],
  "responses": [
    {
      "resetContexts": false,
      "affectedContexts": [
        {
          "name": "registro",
          "parameters": {},
          "lifespan": 5
        }
      ],
      "parameters": [],
      "messages": [
        {
          "type": 0,
          "lang": "es",
          "condition": "",
          "speech": "Puedes presentar documentos a través del Registro Electrónico Común desde el siguiente enlace: https://rec.redsara.es/registro/action/are/acceso.do \nSi quieres presentar documentos ante un ayuntamiento, es recomendable que antes verifiques si está adherido al REC (Registro Electrónico Común)"
        }
      ],
      "defaultResponsePlatforms": {},
      "speech": []
    }
  ],
  "priority": 500000,
  "webhookUsed": false,
  "webhookForSlotFilling": false,
  "fallbackIntent": false,
  "events": [],
  "conditionalResponses": [],
  "condition": "",
  "conditionalFollowupEvents": []
}