[
  {
    "id": "15dba8da-ec23-4743-bed2-24b74590f859",
    "data": [
      {
        "text": "como puedo presentar un documento en la confederación hidrografica del ebro por registro electrónico",
        "userDefined": false
      }
    ],
    "isTemplate": false,
    "count": 0,
    "updated": 0
  },
  {
    "id": "f89dc8b4-2f79-410b-a597-8876c669ba16",
    "data": [
      {
        "text": "cómo enviar un acuerdo mediante el punto de acceso general de admon electronica?",
        "userDefined": false
      }
    ],
    "isTemplate": false,
    "count": 0,
    "updated": 0
  },
  {
    "id": "3f431a6a-6e4d-421b-8a7e-7b29bb9c665f",
    "data": [
      {
        "text": "Buenas tardes. Estaba interesada en echar una convocatoria de empleo pero el problema es que en la convocatoria que se puede hacer a través de https://administracion.gob.es. EN EL REGISTRO ELECTRÓNICO, pero no sé exactamente en qué apartado o pestaña podría llegar a iniciar el trámite.",
        "userDefined": false
      }
    ],
    "isTemplate": false,
    "count": 0,
    "updated": 0
  },
  {
    "id": "d074e261-2eb5-4796-8545-c7b6317f88b2",
    "data": [
      {
        "text": "Cómo presento ",
        "userDefined": false
      },
      {
        "text": "un",
        "meta": "@sys.ignore",
        "userDefined": false
      },
      {
        "text": " documento ",
        "userDefined": false
      },
      {
        "text": "en el registro",
        "meta": "@sys.ignore",
        "userDefined": false
      },
      {
        "text": " electrónico?",
        "userDefined": false
      }
    ],
    "isTemplate": false,
    "count": 0,
    "updated": 0
  },
  {
    "id": "273612fb-2603-4684-a31f-162f1e1bc976",
    "data": [
      {
        "text": "Cómo enviar documentos mediante el punto de acceso general de ",
        "userDefined": false
      },
      {
        "text": "admon",
        "meta": "@sys.ignore",
        "userDefined": false
      },
      {
        "text": " ",
        "userDefined": false
      },
      {
        "text": "electronica",
        "meta": "@sys.ignore",
        "userDefined": false
      },
      {
        "text": "?",
        "userDefined": false
      }
    ],
    "isTemplate": false,
    "count": 0,
    "updated": 0
  },
  {
    "id": "7c7935e4-62b4-41ac-b0bf-4768ca9a5cd9",
    "data": [
      {
        "text": "¿A través del punto de ",
        "userDefined": false
      },
      {
        "text": "acceso general administracion.gob.es",
        "meta": "@sys.ignore",
        "userDefined": false
      },
      {
        "text": " se puede remitir ",
        "userDefined": false
      },
      {
        "text": "un",
        "meta": "@sys.ignore",
        "userDefined": false
      },
      {
        "text": " escrito con documentación a ",
        "userDefined": false
      },
      {
        "text": "un Ayuntamiento",
        "meta": "@sys.ignore",
        "userDefined": false
      },
      {
        "text": "?",
        "userDefined": false
      }
    ],
    "isTemplate": false,
    "count": 0,
    "updated": 0
  },
  {
    "id": "0d3941bf-3971-43d4-8874-469789e1f800",
    "data": [
      {
        "text": "Buenas ",
        "userDefined": false
      },
      {
        "text": "tardes",
        "meta": "@sys.ignore",
        "userDefined": false
      },
      {
        "text": ". Estaba interesada en echar ",
        "userDefined": false
      },
      {
        "text": "una",
        "meta": "@sys.ignore",
        "userDefined": false
      },
      {
        "text": " convocatoria de empleo pero pone que se puede hacer a través de ",
        "userDefined": false
      },
      {
        "text": "https://administracion.gob.es",
        "meta": "@sys.ignore",
        "userDefined": false
      },
      {
        "text": " ",
        "userDefined": false
      },
      {
        "text": "en el registro",
        "meta": "@sys.ignore",
        "userDefined": false
      },
      {
        "text": " electrónico pero no sé exactamente en qué ",
        "userDefined": false
      },
      {
        "text": "apartado",
        "meta": "@sys.ignore",
        "userDefined": false
      },
      {
        "text": " puedo iniciar el trámite.",
        "userDefined": false
      }
    ],
    "isTemplate": false,
    "count": 0,
    "updated": 0
  },
  {
    "id": "62e8b1f5-a3cc-41d9-836b-0df53d2fa19e",
    "data": [
      {
        "text": "Necesito registrar electrónicamente unos documentos. Me",
        "meta": "@sys.ignore",
        "userDefined": false
      },
      {
        "text": " han dicho que puedo hacerlo por medio de la administración ",
        "userDefined": false
      },
      {
        "text": "electrónica",
        "meta": "@sys.ignore",
        "userDefined": false
      },
      {
        "text": " pero necesito la dirección",
        "userDefined": false
      }
    ],
    "isTemplate": false,
    "count": 0,
    "updated": 0
  }
]