{
  "id": "a105a017-f194-46cf-839b-f5a71304e87d",
  "parentId": "d69e3c8b-505f-4529-8c1b-deed8aaa257e",
  "rootParentId": "85a81ed7-9884-4700-9888-d6b351c4ab84",
  "name": "utilidad_respuesta - yes - otra_consulta_no",
  "auto": true,
  "contexts": [
    "utilidad_respuesta-yes-followup"
  ],
  "responses": [
    {
      "resetContexts": false,
      "action": "utilidad_respuesta.utilidad_respuesta-yes.utilidad_respuesta-yes-no",
      "affectedContexts": [],
      "parameters": [],
      "messages": [
        {
          "type": 0,
          "lang": "es",
          "condition": "",
          "speech": "Muchas gracias por contactar con nuestro servicio de chat. Le informamos de que también estamos disponibles telefónicamente en el número 060."
        }
      ],
      "defaultResponsePlatforms": {},
      "speech": []
    }
  ],
  "priority": 500000,
  "webhookUsed": false,
  "webhookForSlotFilling": false,
  "fallbackIntent": false,
  "events": [],
  "conditionalResponses": [],
  "condition": "",
  "conditionalFollowupEvents": []
}